[
{"title": "FullStack Advanced React + GraphQL", "source": "wesbos", "link": "https://vs1.coursehunter.net/wb-fsar-gql/lesson1.mp4", "archive": ["https://dl1.coursehunter.net/wb-fsar-gql.zip"]},
{"title": "Масштабируемые Offline-Ready приложения GraphQL с AWS AppSync и React", "source": "egghead", "link": "https://vs3.coursehunter.net/egghead-sorgawawsare/lesson1.mp4", "archive": ["https://dl1.coursehunter.net/egghead-sorgawawsare.zip"]},
{"title": "Django с GraphQL", "source": "udemy", "link": "https://vs3.coursehunter.net/udemy-sepdwgql/lesson1.mp4", "archive": ["https://dl1.coursehunter.net/udemy-sepdwgql.zip", "https://vs3.coursehunter.net/udemy-sepdwgql/code.zip"]},
{"title": "Full Stack GraphQL", "source": "frontendmasters", "link": "https://vs3.coursehunter.net/fm-fsqlws/server.mp4", "archive": ["https://dl1.coursehunter.net/fm-fsqlws.zip"]},
{"title": "GraphQL Apollo Сервер с Node.js, MongoDB - GraphQL API ", "source": "udemy", "link": "https://vs2.coursehunter.net/udemy-gaswnmdbapigql/lesson1.mp4", "archive": ["https://dl1.coursehunter.net/udemy-gaswnmdbapigql.zip", "https://vs2.coursehunter.net/udemy-gaswnmdbapigql/code.zip"]},
{"title": "Продвинутый GraphQL, v2", "source": "frontendmasters", "link": "https://vs2.coursehunter.net/fm-agqlvsecon/lesson1.mp4", "archive": ["https://dl1.coursehunter.net/fm-agqlvsecon.zip"]},
{"title": "Создание GraphQL API с помощью ASP.NET Core", "source": "pluralsight", "link": "https://vs3.coursehunter.net/ps-bgqlawacore/lesson1.mp4", "archive": ["https://dl1.coursehunter.net/ps-bgqlawacore.zip", "https://vs3.coursehunter.net/ps-bgqlawacore/code.zip"]},
{"title": "FullStack - Делаем клон Uber: Typescript, NodeJS, GraphQL, React, Apollo", "source": "Nomad Coders", "link": "https://vs2.coursehunter.net/nc-uacftngraet/lesson1.mp4", "archive": ["https://dl1.coursehunter.net/nc-uacftngraet.zip"]},
{"title": "Client-Side GraphQL в React", "source": "frontendmasters", "link": "https://vs2.coursehunter.net/fm-csgqlinreactd/lesson1.webm", "archive": ["https://dl2.coursehunter.net/fm-csgqlinreactd.zip", "https://vs2.coursehunter.net/fm-csgqlinreactd/code.zip"]},
{"title": "Server-Side GraphQL в Node.js", "source": "frontendmasters", "link": "https://vs2.coursehunter.net/fm-ssgqinnsp/lesson1.webm", "archive": ["https://dl1.coursehunter.net/fm-ssgqinnsp.zip", "https://vs2.coursehunter.net/fm-ssgqinnsp/code.zip"]},
{"title": "Разработка схем GraphQL", "source": "egghead", "link": "https://vs2.coursehunter.net/egghead-dggcem/lesson1.mp4", "archive": ["https://dl2.coursehunter.net/egghead-dggcem.zip"]},
{"title": "Введение в GraphQL", "source": "frontendmasters", "link": "https://vs2.coursehunter.net/fm-intro-to-gq/lesson1.webm", "archive": ["https://dl1.coursehunter.net/Introduction-to-GraphQL.zip"]},
{"title": "Постройте Neo4J и GraphQL API", "source": "egghead", "link": "https://vs2.coursehunter.net/egghead-build-ngapi/lesson1.mp4", "archive": ["https://dl1.coursehunter.net/Build-a-Neo4J-&-GraphQL-API.zip"]},
{"title": "Full-Stack React, Python и GraphQL", "source": "udemy", "link": "https://vs3.coursehunter.net/udemy-fsrpgq/lesson1.mp4", "archive": ["https://dl2.coursehunter.net/udemy-fsrpgq.zip", "https://vs3.coursehunter.net/udemy-fsrpgq/code.zip"]},
{"title": "Создайте интернет-магазин с React и GraphQL за 90 минут", "source": "udemy", "link": "https://vs3.coursehunter.net/udemy-boswrag90min/lesson1.mp4", "archive": ["https://dl1.coursehunter.net/Build-an-Online-Store-with-React-and-GraphQL-in-90-Minutes-cc.zip", "https://vs3.coursehunter.net/udemy-boswrag90min/code.zip"]},
{"title": "Full-Stack GraphQL c Absinthe, Phoenix, и React", "source": "pragmaticstudio", "link": "https://vs3.coursehunter.net/ps-fsgapr/lesson1.mp4", "archive": ["https://dl1.coursehunter.net/ps-fsgapr.zip", "https://vs3.coursehunter.net/ps-fsgapr/pragstudio-unpacked-graphql-code.zip"]},
{"title": "UX/UI Design", "source": "itvdn", "link": "https://vs3.coursehunter.net/itvdn-uiuxd/lesson1.mp4", "archive": ["https://dl1.coursehunter.net/itvdn-uiuxd.zip", "https://vs3.coursehunter.net/itvdn-uiuxd/uxui-design-materials.zip"]},
{"title": "Создайте приложение с GraphQL, Laravel и Vue", "source": "tutspluscom", "link": "https://vs3.coursehunter.net/envato-baappwglandvue/lesson1.mp4", "archive": ["https://dl2.coursehunter.net/envato-baappwglandvue.zip"]},
{"title": "Язык запросов GraphQL ", "source": "egghead", "link": "https://vs3.coursehunter.net/egghead-gqlqlc/lesson1.mp4", "archive": ["https://dl1.coursehunter.net/egghead-gqlqlc.zip", "https://vs3.coursehunter.net/egghead-gqlqlc/code.zip"]},
{"title": "Создание масштабируемых API с помощью GraphQL", "source": "pluralsight", "link": "https://vs3.coursehunter.net/ps-sawgql/lesson1.mp4", "archive": ["https://dl1.coursehunter.net/ps-sawgql.zip", "https://vs3.coursehunter.net/ps-sawgql/code.zip"]},
{"title": "Создание API в Node.js, v3", "source": "frontendmasters", "link": "https://vs2.coursehunter.net/fm-apidv3-node/lesson1.webm", "archive": ["https://dl2.coursehunter.net/fm-apidv3-node.zip"]},
{"title": "Знакомство с GraphQL (Воркшоп)", "source": "Codedojo", "link": "https://vs1.coursehunter.net/codedojo-graphql-intro-workshop/lesson1.mp4", "archive": ["https://dl2.coursehunter.net/codedojo-graphql-intro-workshop.zip"]},
{"title": "Продвинутый GraphQL", "source": "frontendmasters", "link": "https://vs1.coursehunter.net/fm-advanced-graphql-live-workshop/lesson1.webm", "archive": ["https://dl2.coursehunter.net/fm-advanced-graphql-live-workshop.zip"]},
{"title": "GraphQL на примере", "source": "udemy", "link": "https://vs1.coursehunter.net/udemy-new-graphql-by-example-course/lesson1.mp4", "archive": ["https://dl2.coursehunter.net/udemy-new-graphql-by-example-course.zip", "https://vs1.coursehunter.net/udemy-new-graphql-by-example-course/graphql-by-example.zip"]},
{"title": "Full-Stack React с GraphQL и Apollo Boost", "source": "udemy", "link": "https://vs1.coursehunter.net/udemy-fsr-gql-ab/lesson1.mp4", "archive": ["https://dl2.coursehunter.net/udemy-fsr-gql-ab.zip", "https://vs1.coursehunter.net/udemy-fsr-gql-ab/code.zip"]},
{"title": "Level 1 Apollo Client c React", "source": "leveluptutorials", "link": "https://vs1.coursehunter.net/lut-apollo-with-react-cc/lesson1.mp4", "archive": ["https://dl1.coursehunter.net/lut-apollo-with-react-cc.zip", "https://vs1.coursehunter.net/lut-apollo-with-react-cc/Level1ApolloClientcode.zip"]},
{"title": "Современный GraphQL BootCamp (Advanced Node.js)", "source": "udemy", "link": "https://vs2.coursehunter.net/udemy-modern-gql-bootcamp-october/lesson1.mp4", "archive": ["https://dl2.coursehunter.net/udemy-modern-gql-bootcamp-october.zip", "https://vs2.coursehunter.net/udemy-modern-gql-bootcamp-october/code.zip"]},
{"title": "[Книга] Дорога к GraphQL", "source": "roadtoreact", "link": null, "archive": ["https://vs2.coursehunter.net/roadtoreact-rtg/code.zip"]},
{"title": "GraphQL", "source": "frontendmasters", "link": "https://vs1.coursehunter.net/fm-graphql/lesson1.mp4", "archive": ["https://dl2.coursehunter.net/fm-graphql.zip"]},
{"title": "Full-Stack Vue с GraphQL - Полное Руководство", "source": "udemy", "link": "https://vs2.coursehunter.net/udemy-full-stack-vue-gql-cg/lesson1.mp4", "archive": ["https://dl2.coursehunter.net/udemy-full-stack-vue-gql-cg.zip", "https://vs2.coursehunter.net/udemy-full-stack-vue-gql-cg/code.zip"]},
{"title": "GraphQL с React: Полное руководство для разработчиков", "source": "udemy", "link": "https://vs3.coursehunter.net/udemy-gqwrcg/lesson1.mp4", "archive": ["https://dl1.coursehunter.net/udemy-gqwrcg.zip", "https://vs3.coursehunter.net/udemy-gqwrcg/code.zip"]},
{"title": "Построение сервера GraphQL", "source": "egghead", "link": "https://vs1.coursehunter.net/egghead-graphql/01.mp4", "archive": ["https://dl2.coursehunter.net/egghead-graphql.zip"]},
{"title": "GraphQL c Angular и Apollo - Полное Full-stack Руководство", "source": "udemy", "link": "https://vs1.coursehunter.net/udemy-graphql-angular-apollo-fs-guide/lesson1.mp4", "archive": ["https://dl1.coursehunter.net/udemy-graphql-angular-apollo-fs-guide.zip", "https://vs1.coursehunter.net/udemy-graphql-angular-apollo-fs-guide/code.zip"]}
]